{
  "$id": "MPUserCollaborator.json",
  "title": "UserCollaborator",
  "type": "object",
  "$mash": {
    "sources": [{ "$ref": "abstract/MPModel.json#" }],
    "with": {
      "properties": {
        "objectType": {
          "type": "string",
          "enum": ["MPUserCollaborator"]
        },
        "userID": { "type": "string" },
        "collaboratorID": {
          "allOf": [
            {
              "$ref": "strings.json#/definitions/_id"
            },
            {
              "type": "string",
              "pattern": "^MPUserProfile:"
            }
          ]
        },
        "collaboratorProfile": {
          "$ref": "MPUserProfile.json#"
        },
        "projects": {
          "type": "object",
          "properties": {
            "owner": {
              "type": "array",
              "items": {
                "allOf": [
                  {
                    "$ref": "strings.json#/definitions/_id"
                  },
                  {
                    "type": "string",
                    "pattern": "^MPProject:"
                  }
                ]
              }
            },
            "writer": {
              "type": "array",
              "items": {
                "allOf": [
                  {
                    "$ref": "strings.json#/definitions/_id"
                  },
                  {
                    "type": "string",
                    "pattern": "^MPProject:"
                  }
                ]
              }
            },
            "editor": {
              "type": "array",
              "items": {
                "allOf": [
                  {
                    "$ref": "strings.json#/definitions/_id"
                  },
                  {
                    "type": "string",
                    "pattern": "^MPProject:"
                  }
                ]
              }
            },
            "viewer": {
              "type": "array",
              "items": {
                "allOf": [
                  {
                    "$ref": "strings.json#/definitions/_id"
                  },
                  {
                    "type": "string",
                    "pattern": "^MPProject:"
                  }
                ]
              }
            }
          }
        }
      },
      "required": [
        "userID",
        "collaboratorID",
        "collaboratorProfile",
        "projects"
      ]
    }
  }
}
